lab04-ctrl/run.txt
TOOL:	xrun(64)	22.03-s001: Started on Mar 20, 2024 at 17:16:24 -03
xrun(64): 22.03-s001: (c) Copyright 1995-2022 Cadence Design Systems, Inc.
file: control.sv
import typedefs::*;
              |
xmvlog: *E,NOPBIND (control.sv,15|14): Package typedefs could not be bound.
  input  opcode_t opcode , // opcode type name must be opcode_t
                |
xmvlog: *E,SVNOTY (control.sv,25|16): Syntactically this identifier appears to begin a datatype but it does not refer to a visible datatype in the current scope.
      else
         |
xmvlog: *E,NOTSTT (control.sv,38|9): expecting a statement [9(IEEE)].
      endmodule
              |
xmvlog: *E,NOTSTT (control.sv,43|14): expecting a statement [9(IEEE)].
	module worklib.control:sv
		errors: 3, warnings: 0
file: control_test.sv
import typedefs::*;
              |
xmvlog: *E,NOPBIND (control_test.sv,18|14): Package typedefs could not be bound.
	module worklib.control_test:sv
		errors: 1, warnings: 0
file: counter.sv
	module worklib.counter:sv
		errors: 0, warnings: 0
file: counter_test.sv
	module worklib.counter_test:sv
		errors: 0, warnings: 0
file: typedefs.sv
	package worklib.typedefs:sv
		errors: 0, warnings: 0
file: control.sv
  input  opcode_t opcode , // opcode type name must be opcode_t
                |
xmvlog: *E,SVNOTY (control.sv,25|16): Syntactically this identifier appears to begin a datatype but it does not refer to a visible datatype in the current scope.
      else
         |
xmvlog: *E,NOTSTT (control.sv,38|9): expecting a statement [9(IEEE)].
      endmodule
              |
xmvlog: *E,NOTSTT (control.sv,43|14): expecting a statement [9(IEEE)].
	module worklib.control:sv
		errors: 3, warnings: 0
file: control_test.sv
	module worklib.control_test:sv
		errors: 0, warnings: 0
file: counter.sv
module counter (
             |
xmvlog: *W,RECOME (counter.sv,1|13): recompiling design unit worklib.counter:sv.
	First compiled from line 1 of counter.sv.
	module worklib.counter:sv
		errors: 0, warnings: 1
file: counter_test.sv
module counter_test;
                  |
xmvlog: *W,RECOME (counter_test.sv,13|18): recompiling design unit worklib.counter_test:sv.
	First compiled from line 13 of counter_test.sv.
	module worklib.counter_test:sv
		errors: 0, warnings: 1
file: typedefs.sv
package typedefs;
               |
xmvlog: *W,RECOME (typedefs.sv,1|15): recompiling design unit worklib.typedefs:sv.
	First compiled from line 1 of typedefs.sv.
xmvlog: *E,DLCIRD: Circular dependency encountered for design unit 'worklib.typedefs:sv'.
	package worklib.typedefs:sv
		errors: 1, warnings: 1
	Total errors/warnings found outside modules and primitives:
		errors: 1, warnings: 0
xrun: *E,VLGERR: An error occurred during parsing.  Review the log file for errors with the code *E and fix those identified problems to proceed.  Exiting with code (status 1).
TOOL:	xrun(64)	22.03-s001: Exiting on Mar 20, 2024 at 17:16:25 -03  (total: 00:00:01)
TOOL:	xrun(64)	22.03-s001: Started on Mar 20, 2024 at 17:16:42 -03
xrun(64): 22.03-s001: (c) Copyright 1995-2022 Cadence Design Systems, Inc.
file: control.sv
import typedefs::*;
              |
xmvlog: *E,NOPBIND (control.sv,15|14): Package typedefs could not be bound.
  input  opcode_t opcode , // opcode type name must be opcode_t
                |
xmvlog: *E,SVNOTY (control.sv,25|16): Syntactically this identifier appears to begin a datatype but it does not refer to a visible datatype in the current scope.
      else
         |
xmvlog: *E,NOTSTT (control.sv,38|9): expecting a statement [9(IEEE)].
      endmodule
              |
xmvlog: *E,NOTSTT (control.sv,43|14): expecting a statement [9(IEEE)].
	module worklib.control:sv
		errors: 3, warnings: 0
file: control_test.sv
import typedefs::*;
              |
xmvlog: *E,NOPBIND (control_test.sv,18|14): Package typedefs could not be bound.
	module worklib.control_test:sv
		errors: 1, warnings: 0
file: counter.sv
	module worklib.counter:sv
		errors: 0, warnings: 0
file: counter_test.sv
	module worklib.counter_test:sv
		errors: 0, warnings: 0
file: typedefs.sv
	package worklib.typedefs:sv
		errors: 0, warnings: 0
	Total errors/warnings found outside modules and primitives:
		errors: 1, warnings: 0
xrun: *E,VLGERR: An error occurred during parsing.  Review the log file for errors with the code *E and fix those identified problems to proceed.  Exiting with code (status 1).
TOOL:	xrun(64)	22.03-s001: Exiting on Mar 20, 2024 at 17:16:43 -03  (total: 00:00:01)
TOOL:	xrun(64)	22.03-s001: Started on Mar 20, 2024 at 18:02:52 -03
xrun(64): 22.03-s001: (c) Copyright 1995-2022 Cadence Design Systems, Inc.
file: control.sv
import typedefs::*;
              |
xmvlog: *E,NOPBIND (control.sv,15|14): Package typedefs could not be bound.
  input  opcode_t opcode , // opcode type name must be opcode_t
                |
xmvlog: *E,SVNOTY (control.sv,25|16): Syntactically this identifier appears to begin a datatype but it does not refer to a visible datatype in the current scope.
  state_t state ;
              |
xmvlog: *E,ILLPDL (control.sv,34|14): Mixing of ansi & non-ansi style port declaration is not legal.
        end
          |
xmvlog: *E,EXPSMC (control.sv,88|10): expecting a semicolon (';') [9.2.2(IEEE)].
	module worklib.control:sv
		errors: 3, warnings: 0
file: control_test.sv
import typedefs::*;
              |
xmvlog: *E,NOPBIND (control_test.sv,18|14): Package typedefs could not be bound.
	module worklib.control_test:sv
		errors: 1, warnings: 0
file: typedefs.sv
	package worklib.typedefs:sv
		errors: 0, warnings: 0
	Total errors/warnings found outside modules and primitives:
		errors: 1, warnings: 0
xrun: *E,VLGERR: An error occurred during parsing.  Review the log file for errors with the code *E and fix those identified problems to proceed.  Exiting with code (status 1).
TOOL:	xrun(64)	22.03-s001: Exiting on Mar 20, 2024 at 18:02:53 -03  (total: 00:00:01)
TOOL:	xrun(64)	22.03-s001: Started on Mar 20, 2024 at 18:06:23 -03
xrun(64): 22.03-s001: (c) Copyright 1995-2022 Cadence Design Systems, Inc.
file: control.sv
        end
          |
xmvlog: *E,EXPSMC (control.sv,88|10): expecting a semicolon (';') [9.2.2(IEEE)].
	module worklib.control:sv
		errors: 1, warnings: 0
file: control_test.sv
	module worklib.control_test:sv
		errors: 0, warnings: 0
xrun: *E,VLGERR: An error occurred during parsing.  Review the log file for errors with the code *E and fix those identified problems to proceed.  Exiting with code (status 1).
TOOL:	xrun(64)	22.03-s001: Exiting on Mar 20, 2024 at 18:06:23 -03  (total: 00:00:00)
TOOL:	xrun(64)	22.03-s001: Started on Mar 20, 2024 at 18:07:13 -03
xrun(64): 22.03-s001: (c) Copyright 1995-2022 Cadence Design Systems, Inc.
file: control.sv
      OP_FETCH : begin
             |
xmvlog: *E,UNDIDN (control.sv,68|13): 'OP_FETCH': undeclared identifier [12.5(IEEE)].
	module worklib.control:sv
		errors: 1, warnings: 0
xrun: *E,VLGERR: An error occurred during parsing.  Review the log file for errors with the code *E and fix those identified problems to proceed.  Exiting with code (status 1).
TOOL:	xrun(64)	22.03-s001: Exiting on Mar 20, 2024 at 18:07:14 -03  (total: 00:00:01)
TOOL:	xrun(64)	22.03-s001: Started on Mar 20, 2024 at 18:09:23 -03
xrun(64): 22.03-s001: (c) Copyright 1995-2022 Cadence Design Systems, Inc.
file: typedefs.sv
	package worklib.typedefs:sv
		errors: 0, warnings: 0
file: control.sv
      OP_ADDR : begin
            |
xmvlog: *E,UNDIDN (control.sv,62|12): 'OP_ADDR': undeclared identifier [12.5(IEEE)].
	module worklib.control:sv
		errors: 1, warnings: 0
file: control_test.sv
	module worklib.control_test:sv
		errors: 0, warnings: 0
xrun: *E,VLGERR: An error occurred during parsing.  Review the log file for errors with the code *E and fix those identified problems to proceed.  Exiting with code (status 1).
TOOL:	xrun(64)	22.03-s001: Exiting on Mar 20, 2024 at 18:09:23 -03  (total: 00:00:00)
TOOL:	xrun(64)	22.03-s001: Started on Mar 20, 2024 at 18:10:21 -03
xrun(64): 22.03-s001: (c) Copyright 1995-2022 Cadence Design Systems, Inc.
file: typedefs.sv
	package worklib.typedefs:sv
		errors: 0, warnings: 0
file: control.sv
	module worklib.control:sv
		errors: 0, warnings: 0
file: control_test.sv
	module worklib.control_test:sv
		errors: 0, warnings: 0
		Caching library 'worklib' ....... Done
	Elaborating the design hierarchy:
	Top level design units:
		typedefs
		$unit_0x66d70c0b
		control_test
xmelab: *W,DSEMEL: This SystemVerilog design will be simulated as per IEEE 1800-2009 SystemVerilog simulation semantics. Use -disable_sem2009 option for turning off SV 2009 simulation semantics.
	Building instance overlay tables: .................... Done
	Generating native compiled code:
		worklib.control_test:sv <0x6645b887>
			streams:  20, words: 20376
		worklib.control:sv <0x6fff2e23>
			streams:   5, words:  7335
	Building instance specific data structures.
	Loading native compiled code:     .................... Done
	Design hierarchy summary:
		                   Instances  Unique
		Modules:                   2       2
		Verilog packages:          1       1
		Registers:                27      27
		Scalar wires:             19       -
		Vectored wires:            4       -
		Always blocks:             3       3
		Initial blocks:            4       4
		Cont. assignments:         4       5
		Pseudo assignments:       11      11
		Compilation units:         1       1
		Simulation timescale:  100ps
	Writing initial simulation snapshot: worklib.control_test:sv
Loading snapshot worklib.control_test:sv .................... Done
xmsim: *W,DSEM2009: This SystemVerilog design is simulated as per IEEE 1800-2009 SystemVerilog simulation semantics. Use -disable_sem2009 option for turning off SV 2009 simulation semantics.
xcelium> source /home/cadence/cadence/installsXCELIUM2203/tools/xcelium/files/xmsimrc
xcelium> run
    0.0ns rst_=1 ph= 	 zer=0 op=HLT rd=0 l_ir=0 hlt=0 inc=0 l_ac=0 l_pc=0 wr=0
    5.0ns rst_=0 ph=INST_ADDR 	 zer=0 op=HLT rd=0 l_ir=0 hlt=0 inc=0 l_ac=0 l_pc=0 wr=0
   15.0ns rst_=1 ph=INST_ADDR 	 zer=0 op=HLT rd=0 l_ir=0 hlt=0 inc=0 l_ac=0 l_pc=0 wr=0
   20.0ns rst_=1 ph=INST_FETCH 	 zer=0 op=HLT rd=1 l_ir=0 hlt=0 inc=0 l_ac=0 l_pc=0 wr=0
   30.0ns rst_=1 ph=INST_LOAD 	 zer=0 op=HLT rd=1 l_ir=1 hlt=0 inc=0 l_ac=0 l_pc=0 wr=0
   40.0ns rst_=1 ph=IDLE 	 zer=0 op=HLT rd=1 l_ir=1 hlt=0 inc=0 l_ac=0 l_pc=0 wr=0
   50.0ns rst_=1 ph=OP_ADDR 	 zer=0 op=HLT rd=0 l_ir=0 hlt=0 inc=1 l_ac=0 l_pc=0 wr=0
CONTROLLER TEST FAILED
{mem_rd,load_ir,halt,inc_pc,load_ac,load_pc,mem_wr}
is        0001000
should be 0011000
state: OP_ADDR   opcode: HLT  zero: 0
Simulation stopped via $stop(1) at time 55 NS + 0
./control_test.sv:91         $stop;
xcelium> TOOL:	xrun(64)	22.03-s001: Exiting on Mar 20, 2024 at 18:10:23 -03  (total: 00:00:02)
TOOL:	xrun(64)	22.03-s001: Started on Mar 20, 2024 at 18:14:17 -03
xrun(64): 22.03-s001: (c) Copyright 1995-2022 Cadence Design Systems, Inc.
Recompiling... reason: file './control.sv' is newer than expected.
	expected: Wed Mar 20 18:10:20 2024
	actual:   Wed Mar 20 18:14:16 2024
file: control.sv
	module worklib.control:sv
		errors: 0, warnings: 0
		Caching library 'worklib' ....... Done
	Elaborating the design hierarchy:
	Top level design units:
		typedefs
		$unit_0x66d70c0b
		control_test
xmelab: *W,DSEMEL: This SystemVerilog design will be simulated as per IEEE 1800-2009 SystemVerilog simulation semantics. Use -disable_sem2009 option for turning off SV 2009 simulation semantics.
	Building instance overlay tables: .................... Done
	Generating native compiled code:
		worklib.control_test:sv <0x6645b887>
			streams:  20, words: 20376
		worklib.control:sv <0x6fff2e23>
			streams:   5, words:  7335
	Building instance specific data structures.
	Loading native compiled code:     .................... Done
	Design hierarchy summary:
		                   Instances  Unique
		Modules:                   2       2
		Verilog packages:          1       1
		Registers:                27      27
		Scalar wires:             19       -
		Vectored wires:            4       -
		Always blocks:             3       3
		Initial blocks:            4       4
		Cont. assignments:         4       5
		Pseudo assignments:       11      11
		Compilation units:         1       1
		Simulation timescale:  100ps
	Writing initial simulation snapshot: worklib.control_test:sv
Loading snapshot worklib.control_test:sv .................... Done
xmsim: *W,DSEM2009: This SystemVerilog design is simulated as per IEEE 1800-2009 SystemVerilog simulation semantics. Use -disable_sem2009 option for turning off SV 2009 simulation semantics.
xcelium> source /home/cadence/cadence/installsXCELIUM2203/tools/xcelium/files/xmsimrc
xcelium> run
    0.0ns rst_=1 ph= 	 zer=0 op=HLT rd=0 l_ir=0 hlt=0 inc=0 l_ac=0 l_pc=0 wr=0
    5.0ns rst_=0 ph=INST_ADDR 	 zer=0 op=HLT rd=0 l_ir=0 hlt=0 inc=0 l_ac=0 l_pc=0 wr=0
   15.0ns rst_=1 ph=INST_ADDR 	 zer=0 op=HLT rd=0 l_ir=0 hlt=0 inc=0 l_ac=0 l_pc=0 wr=0
   20.0ns rst_=1 ph=INST_FETCH 	 zer=0 op=HLT rd=1 l_ir=0 hlt=0 inc=0 l_ac=0 l_pc=0 wr=0
   30.0ns rst_=1 ph=INST_LOAD 	 zer=0 op=HLT rd=1 l_ir=1 hlt=0 inc=0 l_ac=0 l_pc=0 wr=0
   40.0ns rst_=1 ph=IDLE 	 zer=0 op=HLT rd=1 l_ir=1 hlt=0 inc=0 l_ac=0 l_pc=0 wr=0
   50.0ns rst_=1 ph=OP_ADDR 	 zer=0 op=HLT rd=0 l_ir=0 hlt=0 inc=1 l_ac=0 l_pc=0 wr=0
CONTROLLER TEST FAILED
{mem_rd,load_ir,halt,inc_pc,load_ac,load_pc,mem_wr}
is        0001000
should be 0011000
state: OP_ADDR   opcode: HLT  zero: 0
Simulation stopped via $stop(1) at time 55 NS + 0
./control_test.sv:91         $stop;
xcelium> TOOL:	xrun(64)	22.03-s001: Exiting on Mar 20, 2024 at 18:14:18 -03  (total: 00:00:01)
TOOL:	xrun(64)	22.03-s001: Started on Mar 20, 2024 at 18:17:47 -03
xrun(64): 22.03-s001: (c) Copyright 1995-2022 Cadence Design Systems, Inc.
Recompiling... reason: file './control.sv' is newer than expected.
	expected: Wed Mar 20 18:14:16 2024
	actual:   Wed Mar 20 18:17:45 2024
file: control.sv
	module worklib.control:sv
		errors: 0, warnings: 0
		Caching library 'worklib' ....... Done
	Elaborating the design hierarchy:
	Top level design units:
		typedefs
		$unit_0x66d70c0b
		control_test
xmelab: *W,DSEMEL: This SystemVerilog design will be simulated as per IEEE 1800-2009 SystemVerilog simulation semantics. Use -disable_sem2009 option for turning off SV 2009 simulation semantics.
	Building instance overlay tables: .................... Done
	Generating native compiled code:
		worklib.control_test:sv <0x5f413d66>
			streams:  20, words: 20376
		worklib.control:sv <0x2774122c>
			streams:   5, words:  7396
	Building instance specific data structures.
	Loading native compiled code:     .................... Done
	Design hierarchy summary:
		                   Instances  Unique
		Modules:                   2       2
		Verilog packages:          1       1
		Registers:                27      27
		Scalar wires:             19       -
		Vectored wires:            4       -
		Always blocks:             3       3
		Initial blocks:            4       4
		Cont. assignments:         4       5
		Pseudo assignments:       11      11
		Compilation units:         1       1
		Simulation timescale:  100ps
	Writing initial simulation snapshot: worklib.control_test:sv
Loading snapshot worklib.control_test:sv .................... Done
xmsim: *W,DSEM2009: This SystemVerilog design is simulated as per IEEE 1800-2009 SystemVerilog simulation semantics. Use -disable_sem2009 option for turning off SV 2009 simulation semantics.
xcelium> source /home/cadence/cadence/installsXCELIUM2203/tools/xcelium/files/xmsimrc
xcelium> run
    0.0ns rst_=1 ph= 	 zer=0 op=HLT rd=0 l_ir=0 hlt=0 inc=0 l_ac=0 l_pc=0 wr=0
    5.0ns rst_=0 ph=INST_ADDR 	 zer=0 op=HLT rd=0 l_ir=0 hlt=0 inc=0 l_ac=0 l_pc=0 wr=0
   15.0ns rst_=1 ph=INST_ADDR 	 zer=0 op=HLT rd=0 l_ir=0 hlt=0 inc=0 l_ac=0 l_pc=0 wr=0
   20.0ns rst_=1 ph=INST_FETCH 	 zer=0 op=HLT rd=1 l_ir=0 hlt=0 inc=0 l_ac=0 l_pc=0 wr=0
   30.0ns rst_=1 ph=INST_LOAD 	 zer=0 op=HLT rd=1 l_ir=1 hlt=0 inc=0 l_ac=0 l_pc=0 wr=0
   40.0ns rst_=1 ph=IDLE 	 zer=0 op=HLT rd=1 l_ir=1 hlt=0 inc=0 l_ac=0 l_pc=0 wr=0
   50.0ns rst_=1 ph=OP_ADDR 	 zer=0 op=HLT rd=0 l_ir=0 hlt=1 inc=1 l_ac=0 l_pc=0 wr=0
   60.0ns rst_=1 ph=OP_FETCH 	 zer=0 op=HLT rd=0 l_ir=0 hlt=0 inc=0 l_ac=0 l_pc=0 wr=0
   70.0ns rst_=1 ph=ALU_OP 	 zer=0 op=HLT rd=0 l_ir=0 hlt=0 inc=0 l_ac=0 l_pc=0 wr=0
   80.0ns rst_=1 ph=STORE 	 zer=0 op=HLT rd=0 l_ir=0 hlt=0 inc=0 l_ac=0 l_pc=0 wr=0
   90.0ns rst_=1 ph=INST_ADDR 	 zer=0 op=HLT rd=0 l_ir=0 hlt=0 inc=0 l_ac=0 l_pc=0 wr=0
  100.0ns rst_=1 ph=INST_FETCH 	 zer=0 op=HLT rd=1 l_ir=0 hlt=0 inc=0 l_ac=0 l_pc=0 wr=0
  110.0ns rst_=1 ph=INST_LOAD 	 zer=0 op=HLT rd=1 l_ir=1 hlt=0 inc=0 l_ac=0 l_pc=0 wr=0
  120.0ns rst_=1 ph=IDLE 	 zer=0 op=HLT rd=1 l_ir=1 hlt=0 inc=0 l_ac=0 l_pc=0 wr=0
  130.0ns rst_=1 ph=OP_ADDR 	 zer=0 op=HLT rd=0 l_ir=0 hlt=1 inc=1 l_ac=0 l_pc=0 wr=0
  140.0ns rst_=1 ph=OP_FETCH 	 zer=0 op=HLT rd=0 l_ir=0 hlt=0 inc=0 l_ac=0 l_pc=0 wr=0
  150.0ns rst_=1 ph=ALU_OP 	 zer=0 op=HLT rd=0 l_ir=0 hlt=0 inc=0 l_ac=0 l_pc=0 wr=0
  160.0ns rst_=1 ph=STORE 	 zer=0 op=HLT rd=0 l_ir=0 hlt=0 inc=0 l_ac=0 l_pc=0 wr=0
  165.0ns rst_=1 ph=STORE 	 zer=0 op=SKZ rd=0 l_ir=0 hlt=0 inc=0 l_ac=0 l_pc=0 wr=0
  170.0ns rst_=1 ph=INST_ADDR 	 zer=0 op=SKZ rd=0 l_ir=0 hlt=0 inc=0 l_ac=0 l_pc=0 wr=0
  180.0ns rst_=1 ph=INST_FETCH 	 zer=0 op=SKZ rd=1 l_ir=0 hlt=0 inc=0 l_ac=0 l_pc=0 wr=0
  190.0ns rst_=1 ph=INST_LOAD 	 zer=0 op=SKZ rd=1 l_ir=1 hlt=0 inc=0 l_ac=0 l_pc=0 wr=0
  200.0ns rst_=1 ph=IDLE 	 zer=0 op=SKZ rd=1 l_ir=1 hlt=0 inc=0 l_ac=0 l_pc=0 wr=0
  210.0ns rst_=1 ph=OP_ADDR 	 zer=0 op=SKZ rd=0 l_ir=0 hlt=0 inc=1 l_ac=0 l_pc=0 wr=0
  220.0ns rst_=1 ph=OP_FETCH 	 zer=0 op=SKZ rd=0 l_ir=0 hlt=0 inc=0 l_ac=0 l_pc=0 wr=0
  230.0ns rst_=1 ph=ALU_OP 	 zer=0 op=SKZ rd=0 l_ir=0 hlt=0 inc=0 l_ac=0 l_pc=0 wr=0
  240.0ns rst_=1 ph=STORE 	 zer=0 op=SKZ rd=0 l_ir=0 hlt=0 inc=0 l_ac=0 l_pc=0 wr=0
  245.0ns rst_=1 ph=STORE 	 zer=0 op=ADD rd=1 l_ir=0 hlt=0 inc=0 l_ac=1 l_pc=0 wr=0
  250.0ns rst_=1 ph=INST_ADDR 	 zer=0 op=ADD rd=0 l_ir=0 hlt=0 inc=0 l_ac=0 l_pc=0 wr=0
  260.0ns rst_=1 ph=INST_FETCH 	 zer=0 op=ADD rd=1 l_ir=0 hlt=0 inc=0 l_ac=0 l_pc=0 wr=0
  270.0ns rst_=1 ph=INST_LOAD 	 zer=0 op=ADD rd=1 l_ir=1 hlt=0 inc=0 l_ac=0 l_pc=0 wr=0
  280.0ns rst_=1 ph=IDLE 	 zer=0 op=ADD rd=1 l_ir=1 hlt=0 inc=0 l_ac=0 l_pc=0 wr=0
  290.0ns rst_=1 ph=OP_ADDR 	 zer=0 op=ADD rd=0 l_ir=0 hlt=0 inc=1 l_ac=0 l_pc=0 wr=0
  300.0ns rst_=1 ph=OP_FETCH 	 zer=0 op=ADD rd=1 l_ir=0 hlt=0 inc=0 l_ac=0 l_pc=0 wr=0
  310.0ns rst_=1 ph=ALU_OP 	 zer=0 op=ADD rd=1 l_ir=0 hlt=0 inc=0 l_ac=1 l_pc=0 wr=0
  320.0ns rst_=1 ph=STORE 	 zer=0 op=ADD rd=1 l_ir=0 hlt=0 inc=0 l_ac=1 l_pc=0 wr=0
  325.0ns rst_=1 ph=STORE 	 zer=0 op=AND rd=1 l_ir=0 hlt=0 inc=0 l_ac=1 l_pc=0 wr=0
  330.0ns rst_=1 ph=INST_ADDR 	 zer=0 op=AND rd=0 l_ir=0 hlt=0 inc=0 l_ac=0 l_pc=0 wr=0
  340.0ns rst_=1 ph=INST_FETCH 	 zer=0 op=AND rd=1 l_ir=0 hlt=0 inc=0 l_ac=0 l_pc=0 wr=0
  350.0ns rst_=1 ph=INST_LOAD 	 zer=0 op=AND rd=1 l_ir=1 hlt=0 inc=0 l_ac=0 l_pc=0 wr=0
  360.0ns rst_=1 ph=IDLE 	 zer=0 op=AND rd=1 l_ir=1 hlt=0 inc=0 l_ac=0 l_pc=0 wr=0
  370.0ns rst_=1 ph=OP_ADDR 	 zer=0 op=AND rd=0 l_ir=0 hlt=0 inc=1 l_ac=0 l_pc=0 wr=0
  380.0ns rst_=1 ph=OP_FETCH 	 zer=0 op=AND rd=1 l_ir=0 hlt=0 inc=0 l_ac=0 l_pc=0 wr=0
  390.0ns rst_=1 ph=ALU_OP 	 zer=0 op=AND rd=1 l_ir=0 hlt=0 inc=0 l_ac=1 l_pc=0 wr=0
  400.0ns rst_=1 ph=STORE 	 zer=0 op=AND rd=1 l_ir=0 hlt=0 inc=0 l_ac=1 l_pc=0 wr=0
  405.0ns rst_=1 ph=STORE 	 zer=0 op=XOR rd=1 l_ir=0 hlt=0 inc=0 l_ac=1 l_pc=0 wr=0
  410.0ns rst_=1 ph=INST_ADDR 	 zer=0 op=XOR rd=0 l_ir=0 hlt=0 inc=0 l_ac=0 l_pc=0 wr=0
  420.0ns rst_=1 ph=INST_FETCH 	 zer=0 op=XOR rd=1 l_ir=0 hlt=0 inc=0 l_ac=0 l_pc=0 wr=0
  430.0ns rst_=1 ph=INST_LOAD 	 zer=0 op=XOR rd=1 l_ir=1 hlt=0 inc=0 l_ac=0 l_pc=0 wr=0
  440.0ns rst_=1 ph=IDLE 	 zer=0 op=XOR rd=1 l_ir=1 hlt=0 inc=0 l_ac=0 l_pc=0 wr=0
  450.0ns rst_=1 ph=OP_ADDR 	 zer=0 op=XOR rd=0 l_ir=0 hlt=0 inc=1 l_ac=0 l_pc=0 wr=0
  460.0ns rst_=1 ph=OP_FETCH 	 zer=0 op=XOR rd=1 l_ir=0 hlt=0 inc=0 l_ac=0 l_pc=0 wr=0
  470.0ns rst_=1 ph=ALU_OP 	 zer=0 op=XOR rd=1 l_ir=0 hlt=0 inc=0 l_ac=1 l_pc=0 wr=0
  480.0ns rst_=1 ph=STORE 	 zer=0 op=XOR rd=1 l_ir=0 hlt=0 inc=0 l_ac=1 l_pc=0 wr=0
  485.0ns rst_=1 ph=STORE 	 zer=0 op=LDA rd=1 l_ir=0 hlt=0 inc=0 l_ac=1 l_pc=0 wr=0
  490.0ns rst_=1 ph=INST_ADDR 	 zer=0 op=LDA rd=0 l_ir=0 hlt=0 inc=0 l_ac=0 l_pc=0 wr=0
  500.0ns rst_=1 ph=INST_FETCH 	 zer=0 op=LDA rd=1 l_ir=0 hlt=0 inc=0 l_ac=0 l_pc=0 wr=0
  510.0ns rst_=1 ph=INST_LOAD 	 zer=0 op=LDA rd=1 l_ir=1 hlt=0 inc=0 l_ac=0 l_pc=0 wr=0
  520.0ns rst_=1 ph=IDLE 	 zer=0 op=LDA rd=1 l_ir=1 hlt=0 inc=0 l_ac=0 l_pc=0 wr=0
  530.0ns rst_=1 ph=OP_ADDR 	 zer=0 op=LDA rd=0 l_ir=0 hlt=0 inc=1 l_ac=0 l_pc=0 wr=0
  540.0ns rst_=1 ph=OP_FETCH 	 zer=0 op=LDA rd=1 l_ir=0 hlt=0 inc=0 l_ac=0 l_pc=0 wr=0
  550.0ns rst_=1 ph=ALU_OP 	 zer=0 op=LDA rd=1 l_ir=0 hlt=0 inc=0 l_ac=1 l_pc=0 wr=0
  560.0ns rst_=1 ph=STORE 	 zer=0 op=LDA rd=1 l_ir=0 hlt=0 inc=0 l_ac=1 l_pc=0 wr=0
  565.0ns rst_=1 ph=STORE 	 zer=0 op=STO rd=0 l_ir=0 hlt=0 inc=0 l_ac=0 l_pc=0 wr=1
  570.0ns rst_=1 ph=INST_ADDR 	 zer=0 op=STO rd=0 l_ir=0 hlt=0 inc=0 l_ac=0 l_pc=0 wr=0
  580.0ns rst_=1 ph=INST_FETCH 	 zer=0 op=STO rd=1 l_ir=0 hlt=0 inc=0 l_ac=0 l_pc=0 wr=0
  590.0ns rst_=1 ph=INST_LOAD 	 zer=0 op=STO rd=1 l_ir=1 hlt=0 inc=0 l_ac=0 l_pc=0 wr=0
  600.0ns rst_=1 ph=IDLE 	 zer=0 op=STO rd=1 l_ir=1 hlt=0 inc=0 l_ac=0 l_pc=0 wr=0
  610.0ns rst_=1 ph=OP_ADDR 	 zer=0 op=STO rd=0 l_ir=0 hlt=0 inc=1 l_ac=0 l_pc=0 wr=0
  620.0ns rst_=1 ph=OP_FETCH 	 zer=0 op=STO rd=0 l_ir=0 hlt=0 inc=0 l_ac=0 l_pc=0 wr=0
  630.0ns rst_=1 ph=ALU_OP 	 zer=0 op=STO rd=0 l_ir=0 hlt=0 inc=0 l_ac=0 l_pc=0 wr=0
  640.0ns rst_=1 ph=STORE 	 zer=0 op=STO rd=0 l_ir=0 hlt=0 inc=0 l_ac=0 l_pc=0 wr=1
  645.0ns rst_=1 ph=STORE 	 zer=0 op=JMP rd=0 l_ir=0 hlt=0 inc=1 l_ac=0 l_pc=1 wr=0
  650.0ns rst_=1 ph=INST_ADDR 	 zer=0 op=JMP rd=0 l_ir=0 hlt=0 inc=0 l_ac=0 l_pc=0 wr=0
  660.0ns rst_=1 ph=INST_FETCH 	 zer=0 op=JMP rd=1 l_ir=0 hlt=0 inc=0 l_ac=0 l_pc=0 wr=0
  670.0ns rst_=1 ph=INST_LOAD 	 zer=0 op=JMP rd=1 l_ir=1 hlt=0 inc=0 l_ac=0 l_pc=0 wr=0
  680.0ns rst_=1 ph=IDLE 	 zer=0 op=JMP rd=1 l_ir=1 hlt=0 inc=0 l_ac=0 l_pc=0 wr=0
  690.0ns rst_=1 ph=OP_ADDR 	 zer=0 op=JMP rd=0 l_ir=0 hlt=0 inc=1 l_ac=0 l_pc=0 wr=0
  700.0ns rst_=1 ph=OP_FETCH 	 zer=0 op=JMP rd=0 l_ir=0 hlt=0 inc=0 l_ac=0 l_pc=0 wr=0
  710.0ns rst_=1 ph=ALU_OP 	 zer=0 op=JMP rd=0 l_ir=0 hlt=0 inc=0 l_ac=0 l_pc=1 wr=0
  720.0ns rst_=1 ph=STORE 	 zer=0 op=JMP rd=0 l_ir=0 hlt=0 inc=1 l_ac=0 l_pc=1 wr=0
  725.0ns rst_=1 ph=STORE 	 zer=1 op=HLT rd=0 l_ir=0 hlt=0 inc=0 l_ac=0 l_pc=0 wr=0
  730.0ns rst_=1 ph=INST_ADDR 	 zer=1 op=HLT rd=0 l_ir=0 hlt=0 inc=0 l_ac=0 l_pc=0 wr=0
  740.0ns rst_=1 ph=INST_FETCH 	 zer=1 op=HLT rd=1 l_ir=0 hlt=0 inc=0 l_ac=0 l_pc=0 wr=0
  750.0ns rst_=1 ph=INST_LOAD 	 zer=1 op=HLT rd=1 l_ir=1 hlt=0 inc=0 l_ac=0 l_pc=0 wr=0
  760.0ns rst_=1 ph=IDLE 	 zer=1 op=HLT rd=1 l_ir=1 hlt=0 inc=0 l_ac=0 l_pc=0 wr=0
  770.0ns rst_=1 ph=OP_ADDR 	 zer=1 op=HLT rd=0 l_ir=0 hlt=1 inc=1 l_ac=0 l_pc=0 wr=0
  780.0ns rst_=1 ph=OP_FETCH 	 zer=1 op=HLT rd=0 l_ir=0 hlt=0 inc=0 l_ac=0 l_pc=0 wr=0
  790.0ns rst_=1 ph=ALU_OP 	 zer=1 op=HLT rd=0 l_ir=0 hlt=0 inc=0 l_ac=0 l_pc=0 wr=0
  800.0ns rst_=1 ph=STORE 	 zer=1 op=HLT rd=0 l_ir=0 hlt=0 inc=0 l_ac=0 l_pc=0 wr=0
  805.0ns rst_=1 ph=STORE 	 zer=1 op=SKZ rd=0 l_ir=0 hlt=0 inc=0 l_ac=0 l_pc=0 wr=0
  810.0ns rst_=1 ph=INST_ADDR 	 zer=1 op=SKZ rd=0 l_ir=0 hlt=0 inc=0 l_ac=0 l_pc=0 wr=0
  820.0ns rst_=1 ph=INST_FETCH 	 zer=1 op=SKZ rd=1 l_ir=0 hlt=0 inc=0 l_ac=0 l_pc=0 wr=0
  830.0ns rst_=1 ph=INST_LOAD 	 zer=1 op=SKZ rd=1 l_ir=1 hlt=0 inc=0 l_ac=0 l_pc=0 wr=0
  840.0ns rst_=1 ph=IDLE 	 zer=1 op=SKZ rd=1 l_ir=1 hlt=0 inc=0 l_ac=0 l_pc=0 wr=0
  850.0ns rst_=1 ph=OP_ADDR 	 zer=1 op=SKZ rd=0 l_ir=0 hlt=0 inc=1 l_ac=0 l_pc=0 wr=0
  860.0ns rst_=1 ph=OP_FETCH 	 zer=1 op=SKZ rd=0 l_ir=0 hlt=0 inc=0 l_ac=0 l_pc=0 wr=0
